<svg width="150" height="33" viewBox="0 0 150 33" fill="none" xmlns="http://www.w3.org/2000/svg">
    <path d="M11.0463 4.85347C10.9635 4.93605 10.8744 5.08852 10.8553 5.19016C10.728 5.81908 10.3714 6.04778 9.04077 6.37812C7.89476 6.65764 7.68466 6.76564 7.58279 7.1595C7.50639 7.45173 7.22626 7.58513 6.32855 7.74395C4.60953 8.04888 3.90919 8.29029 3.73093 8.63333C3.53356 9.00814 3.65453 9.94199 4.10656 11.5111C4.43127 12.6355 4.64773 13.1501 4.93424 13.4423C5.18254 13.7028 5.22074 13.7219 5.53271 13.7219C5.93381 13.7219 6.32218 13.5694 7.09892 13.0993C8.30223 12.3687 8.63967 12.2734 9.15537 12.5212C9.66471 12.769 10.0021 13.4233 10.1613 14.4588C10.2122 14.7764 10.2886 16.2185 10.3459 17.6669C10.4415 20.3223 10.4669 20.6146 10.7025 21.1609L10.8362 21.4658L11.1673 21.2435C11.7212 20.8814 12.1668 20.748 12.8926 20.748C13.6566 20.7416 14.0705 20.8496 14.6244 21.2117L15.0128 21.4658L15.1146 21.2117C15.2101 20.9703 15.2547 20.6336 15.4011 19.0645C15.4712 18.3022 15.6367 17.9019 15.9805 17.6732C16.388 17.4001 16.6172 17.3747 18.4635 17.3747H20.2144L20.5773 17.5525C21.2012 17.8575 21.4495 18.2831 22.048 20.0809C22.5 21.4404 22.7483 21.9804 23.0285 22.2536L23.2131 22.4251L23.4168 22.1201C23.837 21.4722 24.4928 21.0021 25.2568 20.8051C25.677 20.6971 26.3901 20.6844 26.7976 20.7797C26.9567 20.8115 27.1032 20.8178 27.135 20.7861C27.1668 20.7543 27.205 20.551 27.2241 20.3223C27.3324 19.1788 26.2309 14.5731 25.4542 12.8833L25.1995 12.3306L25.5242 11.9622C25.9317 11.5048 26.4983 10.3867 26.6766 9.68789C26.874 8.92556 26.9376 8.17594 26.8358 7.78842C26.6766 7.17856 26.0272 6.77199 25.4605 6.92445C25.034 7.0388 24.7984 7.31832 24.4864 8.087C23.8816 9.57989 23.3277 10.1389 22.1371 10.4693C21.7933 10.5646 21.3986 10.5773 19.1002 10.5773C16.2097 10.5773 16.0187 10.5519 15.3247 10.1834C14.5862 9.77682 13.9113 8.74768 12.6061 6.02872C12.0904 4.94876 11.874 4.701 11.4538 4.701C11.2691 4.701 11.1545 4.74547 11.0463 4.85347Z"
          fill="white"/>
    <path d="M65.068 9.46555C64.4504 9.5799 64.0875 9.80859 63.9156 10.1898C63.8074 10.4312 63.7947 10.6472 63.7947 12.8515C63.7947 15.5387 63.7947 15.5578 63.3681 15.7357C63.0816 15.85 62.776 15.7992 62.5977 15.6086C62.5149 15.5197 62.4131 15.2275 62.3112 14.7701C61.9547 13.1882 61.4326 12.1909 60.4521 11.2125C59.7454 10.5074 59.1979 10.158 58.3702 9.88483C57.5998 9.62437 56.8931 9.5799 53.8307 9.60531C50.6665 9.63072 50.6155 9.63707 50.068 10.1199C49.565 10.5582 49.5141 10.7297 49.4695 12.0066C49.4313 13.2073 49.374 13.4233 49.0557 13.6329C48.8519 13.7663 48.4063 13.7663 48.158 13.6393C47.9415 13.5249 47.9224 13.4805 47.6295 12.5466C47.2794 11.4031 46.6236 10.5455 45.7386 10.0881C44.8409 9.61801 44.9364 9.62437 40.5561 9.62437C36.0357 9.62437 36.2076 9.60531 35.6219 10.1898C35.0107 10.7996 35.0553 10.3232 35.0298 16.9618C35.0171 20.1572 35.0298 22.8952 35.0489 23.0413C35.0935 23.3399 35.3036 23.5876 35.6537 23.7465C35.8256 23.8227 36.0867 23.8481 36.7679 23.8545C37.5956 23.8545 37.6847 23.8418 37.9712 23.6956C38.5824 23.3907 38.5506 23.6003 38.5697 20.1635L38.5888 17.1523L38.7416 17.0507C38.9581 16.9109 39.1936 17.0126 39.4101 17.3239C39.7093 17.7686 44.4462 23.2827 44.6754 23.4542C45.1529 23.8163 45.5285 23.9116 46.5408 23.9116C47.5722 23.918 48.037 23.8227 48.3808 23.5305C48.5909 23.3589 48.6418 23.1048 48.5145 22.8634C48.4763 22.7999 47.534 21.7263 46.4135 20.4875C45.2929 19.2424 44.3761 18.1878 44.3761 18.137C44.3761 18.0798 44.4716 18.0354 44.6181 18.01C45.6686 17.8575 46.1843 17.6351 46.7255 17.0952C47.1457 16.6695 47.394 16.2439 47.655 15.4752C47.8715 14.8272 48.0179 14.6811 48.4636 14.6303C48.8265 14.5858 49.1448 14.732 49.3104 15.0115C49.4313 15.2021 49.4377 15.3863 49.4695 18.5817L49.5014 21.9486L49.7115 22.3743C50.0362 23.0413 50.5964 23.4606 51.3668 23.6258C51.8061 23.7147 57.0459 23.721 57.6189 23.6258C58.6631 23.4606 59.5608 23.0095 60.3375 22.279C61.3244 21.3451 61.9929 20.0238 62.2985 18.4165C62.5149 17.2603 62.5277 17.2222 62.6932 17.0888C62.8969 16.93 63.3235 16.9236 63.5145 17.0761C63.7883 17.2921 63.7947 17.3747 63.7947 19.6172C63.7947 21.396 63.8138 21.8279 63.8965 22.1075C64.1194 22.8507 64.6351 23.3717 65.3863 23.594C65.6856 23.6829 66.2649 23.6956 69.8303 23.6956C73.8732 23.6956 73.9368 23.6956 74.1724 23.5622C74.6499 23.2954 74.9173 22.622 74.8537 21.847C74.79 21.0974 74.4908 20.6273 74.0005 20.5129C73.8668 20.4812 72.3643 20.4558 70.6643 20.4558C67.7675 20.4558 67.5638 20.4494 67.4683 20.3414C67.3728 20.2398 67.36 19.7442 67.3473 15.2783C67.3282 10.5074 67.3218 10.3168 67.2072 10.1199C67.0544 9.87212 66.7997 9.67519 66.4687 9.56084C66.144 9.44649 65.4309 9.39567 65.068 9.46555ZM43.8732 12.9786C44.287 13.2009 44.4716 13.5948 44.4716 14.2619C44.4653 14.8717 44.2997 15.2783 43.9432 15.5515L43.7204 15.723L41.8676 15.7611C40.1486 15.7929 39.9895 15.8056 39.6775 15.9326C39.2509 16.1105 38.8817 16.1168 38.7098 15.9453C38.5888 15.8246 38.5824 15.7357 38.5824 14.3889C38.5824 13.0993 38.5952 12.9595 38.697 12.9024C38.7671 12.8579 39.6902 12.8325 41.1991 12.8325C43.5803 12.8325 43.593 12.8325 43.8732 12.9786ZM57.3324 13.0104C58.4211 13.5122 59.026 14.9924 58.9368 16.9236C58.8732 18.2387 58.5166 19.2424 57.8736 19.8904C57.3261 20.4367 57.2433 20.4558 55.0531 20.4558C53.4233 20.4558 53.1877 20.443 53.0858 20.3478C52.9776 20.2525 52.9712 20.0555 52.9712 16.6822C52.9712 13.5186 52.984 13.0993 53.0731 12.9722L53.175 12.8261L55.0913 12.8452C56.9441 12.8643 57.0268 12.8706 57.3324 13.0104Z"
          fill="white"/>
    <path d="M94.9279 9.47189C94.8451 9.51001 94.7178 9.57989 94.6605 9.63706C94.5523 9.73235 94.5459 10.1199 94.5459 16.6187C94.5459 20.3986 94.565 23.5432 94.5841 23.6003C94.6478 23.7592 94.9661 23.8926 95.329 23.8989C95.8001 23.9116 96.0548 23.8354 96.2012 23.6512C96.3285 23.4923 96.3285 23.4034 96.3285 16.6505C96.3285 9.05261 96.3604 9.59895 95.8956 9.46554C95.6027 9.38931 95.138 9.38931 94.9279 9.47189Z"
          fill="white"/>
    <path d="M74.3315 9.69424C74.1723 9.85306 74.1086 10.0691 74.1086 10.4439C74.1086 10.8504 74.2105 11.1617 74.3633 11.2443C74.4333 11.2824 75.3056 11.3078 76.4898 11.3078H78.5017V17.3366C78.5017 21.1799 78.5271 23.4288 78.5653 23.5368C78.6481 23.7591 78.9792 23.8862 79.4822 23.8862C79.9278 23.8862 80.1443 23.829 80.3035 23.6639C80.4053 23.5686 80.4117 23.0476 80.4117 17.4318V11.3078H82.4681H84.531L84.6838 11.1427C84.8175 10.9965 84.8366 10.9203 84.8366 10.482C84.8366 10.0754 84.8111 9.94835 84.7029 9.80224L84.5692 9.62436L79.5013 9.6053C74.8535 9.5926 74.427 9.59895 74.3315 9.69424Z"
          fill="white"/>
    <path d="M112.946 13.2835C111.876 13.4169 110.806 13.9633 110.208 14.6875C109.463 15.5769 109.132 16.6251 109.081 18.2641C109.03 19.8904 109.266 21.0021 109.864 21.9614C110.494 22.9714 111.456 23.5877 112.78 23.8164C114.034 24.0387 116.632 23.7147 116.925 23.3018C117.052 23.1112 117.052 22.5395 116.912 22.2536C116.766 21.9423 116.594 21.8788 116.218 21.9995C115.327 22.2917 113.862 22.4378 113.175 22.3044C112.048 22.0948 111.329 21.3769 110.991 20.1381C110.826 19.541 110.832 17.5526 110.997 16.9618C111.157 16.39 111.513 15.7357 111.812 15.4625C112.691 14.6748 113.933 14.5795 116.174 15.1258C116.479 15.1957 116.524 15.1957 116.645 15.0814C116.861 14.8844 116.969 14.6113 116.982 14.2428C116.989 13.9442 116.969 13.8807 116.817 13.7536C116.384 13.3852 114.219 13.1184 112.946 13.2835Z"
          fill="white"/>
    <path d="M86.7658 13.3979C85.5052 13.6711 84.5629 14.3762 84.0535 15.4371C83.5824 16.4154 83.436 17.3112 83.4869 18.8549C83.5251 20.1 83.6524 20.7162 84.0472 21.5294C84.4928 22.4378 85.3142 23.143 86.3774 23.5114C87.0141 23.7338 87.5998 23.8227 88.6567 23.8672C90.2484 23.9243 91.5727 23.7401 91.77 23.4225C91.9992 23.054 91.9356 22.3806 91.6491 22.1964C91.5026 22.1011 91.4453 22.1011 90.936 22.2027C90.1083 22.3616 88.3447 22.3997 87.689 22.279C86.2501 22.0058 85.4797 21.1164 85.2951 19.5156L85.2632 19.2487H87.3388C90.0447 19.2424 90.6686 19.1662 91.3244 18.7342C91.961 18.3085 92.2157 17.7177 92.2157 16.6759C92.2093 14.9988 91.3498 13.868 89.739 13.4297C89.1342 13.2645 87.4661 13.2454 86.7658 13.3979ZM88.7777 14.7383C89.9237 14.9035 90.5349 15.5451 90.5349 16.5806C90.5349 17.1778 90.4076 17.4192 89.9746 17.6161C89.6881 17.7495 89.5799 17.7559 87.4916 17.7749L85.3078 17.794L85.346 17.3937C85.4988 15.8627 86.1036 15.0496 87.2878 14.8082C88.0009 14.6621 88.1919 14.6557 88.7777 14.7383Z"
          fill="white"/>
    <path d="M102.237 13.3407C100.989 13.5503 100.053 14.1348 99.4419 15.075C99.2063 15.4371 98.9453 16.1232 98.8116 16.7394C98.697 17.254 98.6333 18.5309 98.6906 19.2741C98.7543 20.1953 98.8943 20.748 99.2381 21.4722C99.792 22.622 100.811 23.378 102.25 23.7083C102.778 23.829 103.033 23.8481 104.319 23.8481C106.07 23.8481 106.624 23.7591 106.916 23.4415C107.063 23.2827 107.088 23.1938 107.088 22.8952C107.088 22.4822 106.955 22.19 106.745 22.1328C106.662 22.1138 106.388 22.1456 106.127 22.2027C105.408 22.3615 103.434 22.3997 102.823 22.2726C101.549 21.9994 100.811 21.2371 100.562 19.9221C100.511 19.6489 100.467 19.3885 100.467 19.344C100.467 19.2741 100.938 19.2551 102.874 19.236C104.885 19.2106 105.338 19.1852 105.656 19.0962C106.477 18.8612 106.923 18.5309 107.209 17.921C107.362 17.5907 107.375 17.5017 107.375 16.7076C107.375 15.7166 107.279 15.3418 106.891 14.7383C106.445 14.0458 105.694 13.5948 104.65 13.3788C104.134 13.2708 102.778 13.2517 102.237 13.3407ZM104.523 14.8717C105.293 15.1131 105.751 15.7547 105.751 16.5933C105.751 17.1142 105.586 17.4128 105.197 17.6034C104.898 17.7558 104.854 17.7558 102.702 17.7749L100.511 17.7939L100.556 17.3111C100.639 16.409 100.976 15.6404 101.435 15.291C102.199 14.7065 103.44 14.5414 104.523 14.8717Z"
          fill="white"/>
    <path d="M121.503 13.3661C120.057 13.6393 119.051 14.3571 118.498 15.5006C118.039 16.4472 117.944 16.9617 117.944 18.5817C117.944 19.8268 117.963 20.0428 118.09 20.551C118.51 22.2027 119.484 23.2446 121.031 23.6766C121.369 23.7655 121.674 23.7909 122.655 23.7909C123.795 23.7846 123.896 23.7782 124.374 23.613C125.558 23.2192 126.43 22.4251 126.876 21.3324C127.271 20.3414 127.455 18.9184 127.341 17.6732C127.201 16.1422 126.851 15.2592 126.068 14.4778C125.526 13.9378 125.055 13.6774 124.234 13.4614C123.585 13.2899 122.152 13.2454 121.503 13.3661ZM123.769 14.8908C124.718 15.2402 125.284 16.0342 125.488 17.2921C125.596 17.9591 125.539 19.8459 125.393 20.3541C125.24 20.9068 124.966 21.4023 124.648 21.7072C123.648 22.6728 121.483 22.6474 120.554 21.6501C119.949 21.0084 119.694 20.0873 119.694 18.5563C119.694 16.3836 120.331 15.2274 121.738 14.8336C122.19 14.7065 123.362 14.7446 123.769 14.8908Z"
          fill="white"/>
    <path d="M132.721 13.4042C131.498 13.5567 130.537 13.9442 130.059 14.4778C129.518 15.075 129.537 14.9098 129.512 19.5028L129.493 23.5432L129.658 23.6956C129.938 23.9561 130.855 23.9561 131.142 23.6893L131.282 23.5622V19.7188C131.282 15.3609 131.256 15.5705 131.778 15.2656C132.243 14.9924 132.816 14.8654 133.593 14.8654C134.548 14.8654 134.93 15.0496 135.242 15.6531C135.509 16.174 135.541 16.6695 135.548 20.208V23.5495L135.713 23.702C135.847 23.829 135.955 23.8545 136.337 23.8735C136.878 23.9053 137.247 23.7719 137.305 23.5368C137.337 23.3971 137.292 16.1994 137.254 15.85C137.235 15.6658 137.26 15.6467 137.84 15.3545C138.623 14.967 139.107 14.8463 139.807 14.8781C140.514 14.9035 140.908 15.0877 141.169 15.5133C141.545 16.1168 141.551 16.1613 141.59 20.0746L141.628 23.6639L141.851 23.7782C142.143 23.9307 142.888 23.9053 143.149 23.7401L143.321 23.6258L143.302 19.7697L143.283 15.9136L143.111 15.399C142.659 14.0776 141.793 13.4805 140.144 13.3661C139.081 13.2899 137.82 13.5376 136.878 14.0141L136.458 14.2237L136.305 14.0586C136.108 13.8553 135.649 13.6202 135.185 13.4932C134.745 13.3788 133.338 13.328 132.721 13.4042Z"
          fill="white"/>
    <path d="M12.1923 21.5992C11.1482 21.9423 10.5179 22.8888 10.5816 24.0069C10.6198 24.6422 10.849 25.1123 11.3456 25.5697C12.186 26.3511 13.4466 26.4146 14.3507 25.7158C15.2611 25.0234 15.5412 23.8163 15.0383 22.7935C14.5226 21.7517 13.2938 21.2308 12.1923 21.5992ZM13.4657 23.2509C13.5548 23.3335 13.6567 23.5114 13.6949 23.6448C13.8222 24.1213 13.4147 24.6485 12.9245 24.6485C12.6889 24.6485 12.3515 24.4516 12.2433 24.2483C12.1287 24.026 12.1223 23.6385 12.2242 23.4415C12.4343 23.0477 13.141 22.946 13.4657 23.2509Z"
          fill="white"/>
    <path d="M25.2059 21.6247C24.7475 21.8089 24.5055 21.9804 24.2254 22.3235C23.7161 22.9397 23.5633 23.7337 23.8052 24.4961C24.3464 26.2558 26.5365 26.7513 27.7844 25.4045C28.2301 24.9281 28.4083 24.4707 28.4083 23.8227C28.4083 23.5368 28.3701 23.2319 28.3065 23.0604C28.0518 22.3616 27.4342 21.7644 26.7721 21.5675C26.3009 21.4214 25.6324 21.4468 25.2059 21.6247ZM26.5238 23.162C26.6002 23.2128 26.7148 23.3589 26.7721 23.486C26.9313 23.81 26.8612 24.1213 26.5811 24.3754C26.3964 24.5469 26.3073 24.585 26.0654 24.585C25.5433 24.585 25.225 24.2102 25.295 23.6893C25.3714 23.1112 26.0208 22.838 26.5238 23.162Z"
          fill="white"/>
</svg>
